<?xml version="1.0" encoding="UTF-8" standalone="no"?>
<!DOCTYPE svg PUBLIC "-//W3C//DTD SVG 1.1//EN" "http://www.w3.org/Graphics/SVG/1.1/DTD/svg11.dtd">
<svg width="100%" height="100%" viewBox="0 0 46 46" version="1.1" xmlns="http://www.w3.org/2000/svg" xmlns:xlink="http://www.w3.org/1999/xlink" xml:space="preserve" style="fill-rule:evenodd;clip-rule:evenodd;stroke-linejoin:round;stroke-miterlimit:1.41421;">
    <path d="M22.766,0.001C10.194,0.001 0,10.193 0,22.766C0,35.339 10.193,45.531 22.766,45.531C35.34,45.531 45.532,35.339 45.532,22.766C45.532,10.193 35.34,0.001 22.766,0.001ZM22.766,6.808C26.926,6.808 30.297,10.18 30.297,14.338C30.297,18.497 26.926,21.868 22.766,21.868C18.608,21.868 15.237,18.497 15.237,14.338C15.237,10.18 18.608,6.808 22.766,6.808ZM22.761,39.579C18.612,39.579 14.812,38.068 11.881,35.567C11.167,34.958 10.755,34.065 10.755,33.128C10.755,28.911 14.168,25.536 18.386,25.536L27.148,25.536C31.367,25.536 34.767,28.911 34.767,33.128C34.767,34.066 34.357,34.957 33.642,35.566C30.712,38.068 26.911,39.579 22.761,39.579Z" style="fill:white;fill-rule:nonzero;"/>
</svg>
